…
    ## -- Conflicts ----------------------------------------------------------------------------------- tidyverse_conflicts() --
    ## x dplyr::filter() masks stats::filter()
    ## x dplyr::lag()    masks stats::lag()

``` r
library(spotifyr)
source('spotify.R')
```

``` r
get_playlist_audio_features('spotify', '37i9dQZEVXcMtOyc7YD1pC')
```

    ## # A tibble: 30 x 61
    ##    playlist_id playlist_name playlist_img playlist_owner_~ playlist_owner_~
    ##    <chr>       <chr>         <chr>        <chr>            <chr>           
    ##  1 37i9dQZEVX~ Discover Wee~ https://new~ Spotify          spotify         
    ##  2 37i9dQZEVX~ Discover Wee~ https://new~ Spotify          spotify         
    ##  3 37i9dQZEVX~ Discover Wee~ https://new~ Spotify          spotify         
    ##  4 37i9dQZEVX~ Discover Wee~ https://new~ Spotify          spotify         
    ##  5 37i9dQZEVX~ Discover Wee~ https://new~ Spotify          spotify         
    ##  6 37i9dQZEVX~ Discover Wee~ https://new~ Spotify          spotify         
    ##  7 37i9dQZEVX~ Discover Wee~ https://new~ Spotify          spotify         
    ##  8 37i9dQZEVX~ Discover Wee~ https://new~ Spotify          spotify         
    ##  9 37i9dQZEVX~ Discover Wee~ https://new~ Spotify          spotify         
    ## 10 37i9dQZEVX~ Discover Wee~ https://new~ Spotify          spotify         
    ## # ... with 20 more rows, and 56 more variables: danceability <dbl>,
    ## #   energy <dbl>, key <int>, loudness <dbl>, mode <int>, speechiness <dbl>,
    ## #   acousticness <dbl>, instrumentalness <dbl>, liveness <dbl>, valence <dbl>,
    ## #   tempo <dbl>, track.id <chr>, analysis_url <chr>, time_signature <int>,
    ## #   added_at <chr>, is_local <lgl>, primary_color <lgl>, added_by.href <chr>,
    ## #   added_by.id <chr>, added_by.type <chr>, added_by.uri <chr>,
    ## #   added_by.external_urls.spotify <chr>, track.artists <list>,
    ## #   track.available_markets <list>, track.disc_number <int>,
    ## #   track.duration_ms <int>, track.episode <lgl>, track.explicit <lgl>,
…
